[{
 
    "name": "Month",
    "data": ["2012", "2013", "2014", "2015", "2016"]
}, {
   
    "name": "Tokyo",
    "data": [7.0, 6.9, 9.5, 14.5, 18.2]
}, {
   
    "name": "New York",
    "data": [-0.2, 0.8, 5.7, 11.3, 17.0]
}, {
 
    "name": "Berlin",
    "data": [-0.9, 0.6, 3.5, 8.4, 13.5]
}, {
  
    "name": "London",
    "data": [3.9, 4.2, 5.7, 8.5, 11.9]
}]